{
  "color": "#637da0",
  "title": "Vem Comigo",
  "site_url": "http://vemcomigo.fr/novo",
  "description": "Planejando viajar para Paris? Visite o blog e confira as melhores dicas de Paris, com passeios e roteiros que você não encontra nos guias de viagem.",
  "google_analytics": "UA-85777944-1",
  "author": "Rafaela Borges"
}
